^C:\USERS\PHILIPP\SOURCE\REPOS\MY1GAMEENGINE\MY1GAMEENGINE\X64\RELEASE\MAIN.OBJ
/OUT:"C:\USERS\PHILIPP\SOURCE\REPOS\MY1GAMEENGINE\X64\RELEASE\MY1GAMEENGINE.EXE" /INCREMENTAL:NO /NOLOGO /LIBPATH:"C:\USERS\PHILIPP\SOURCE\REPOS\MY1GAMEENGINE\\LIBS\GLFW-3.3.2\LIB-VC2019" GLFW3DLL.LIB GLFW3.LIB OPENGL32.LIB KERNEL32.LIB USER32.LIB GDI32.LIB WINSPOOL.LIB COMDLG32.LIB ADVAPI32.LIB SHELL32.LIB OLE32.LIB OLEAUT32.LIB UUID.LIB ODBC32.LIB ODBCCP32.LIB /MANIFEST /MANIFESTUAC:"level='asInvoker' uiAccess='false'" /manifest:embed /DEBUG /PDB:"C:\USERS\PHILIPP\SOURCE\REPOS\MY1GAMEENGINE\X64\RELEASE\MY1GAMEENGINE.PDB" /SUBSYSTEM:CONSOLE /OPT:REF /OPT:ICF /LTCG:incremental /TLBID:1 /DYNAMICBASE /NXCOMPAT /IMPLIB:"C:\USERS\PHILIPP\SOURCE\REPOS\MY1GAMEENGINE\X64\RELEASE\MY1GAMEENGINE.LIB" /MACHINE:X64 X64\RELEASE\MAIN.OBJ
^C:\USERS\PHILIPP\SOURCE\REPOS\MY1GAMEENGINE\MY1GAMEENGINE\X64\RELEASE\GAMEENGINE.OBJ|C:\USERS\PHILIPP\SOURCE\REPOS\MY1GAMEENGINE\MY1GAMEENGINE\X64\RELEASE\GLAD.OBJ|C:\USERS\PHILIPP\SOURCE\REPOS\MY1GAMEENGINE\MY1GAMEENGINE\X64\RELEASE\MAIN.OBJ|C:\USERS\PHILIPP\SOURCE\REPOS\MY1GAMEENGINE\MY1GAMEENGINE\X64\RELEASE\RENDERSYSTEM.OBJ|C:\USERS\PHILIPP\SOURCE\REPOS\MY1GAMEENGINE\MY1GAMEENGINE\X64\RELEASE\RENDERSYSTEMINTERFACE.OBJ
/OUT:"C:\USERS\PHILIPP\SOURCE\REPOS\MY1GAMEENGINE\X64\RELEASE\MY1GAMEENGINE.EXE" /INCREMENTAL:NO /NOLOGO /LIBPATH:"C:\USERS\PHILIPP\SOURCE\REPOS\MY1GAMEENGINE\\LIBS\GLFW-3.3.2\LIB-VC2019" GLFW3DLL.LIB GLFW3.LIB OPENGL32.LIB KERNEL32.LIB USER32.LIB GDI32.LIB WINSPOOL.LIB COMDLG32.LIB ADVAPI32.LIB SHELL32.LIB OLE32.LIB OLEAUT32.LIB UUID.LIB ODBC32.LIB ODBCCP32.LIB /MANIFEST /MANIFESTUAC:"level='asInvoker' uiAccess='false'" /manifest:embed /DEBUG /PDB:"C:\USERS\PHILIPP\SOURCE\REPOS\MY1GAMEENGINE\X64\RELEASE\MY1GAMEENGINE.PDB" /SUBSYSTEM:CONSOLE /OPT:REF /OPT:ICF /LTCG:incremental /TLBID:1 /DYNAMICBASE /NXCOMPAT /IMPLIB:"C:\USERS\PHILIPP\SOURCE\REPOS\MY1GAMEENGINE\X64\RELEASE\MY1GAMEENGINE.LIB" /MACHINE:X64 X64\RELEASE\GLAD.OBJ
X64\RELEASE\GAMEENGINE.OBJ
X64\RELEASE\MAIN.OBJ
X64\RELEASE\RENDERSYSTEM.OBJ
X64\RELEASE\RENDERSYSTEMINTERFACE.OBJ
